[
  {
    "name": "Grand Theft Auto",
    "price": 52,
    "path": "./photos/game-1.jpg",
    "vendor_code": 340912,
    "color": "blue"
  },
  {
    "name": "The Division",
    "price": 32,
    "path": "./photos/game-2.jpg",
    "vendor_code": 914568,
    "color": "blue"
  },
  {
    "name": "Spider Man",
    "price": 40,
    "path": "./photos/game-3.jpg",
    "vendor_code": 590125,
    "color": "blue"
  },
  {
    "name": "Gears of War 2",
    "price": 61,
    "path": "./photos/game-4.jpg",
    "vendor_code": 132432,
    "color": "green"
  },
  {
    "name": "Max Payne 3",
    "price": 33,
    "path": "./photos/game-5.jpg",
    "vendor_code": 145452,
    "color": "black"
  },
  {
    "name": "Shadow of Mordor",
    "price": 12,
    "path": "./photos/game-6.jpg",
    "vendor_code": 812456,
    "color": "green"
  },
  {
    "name": "Asassins Creed Valhalla",
    "price": 43,
    "path": "./photos/game-7.jpg",
    "vendor_code": 784323,
    "color": "blue"
  },
  {
    "name": "Dishonored",
    "price": 61,
    "path": "./photos/game-8.jpg",
    "vendor_code": 481232,
    "color": "black"
  },
  {
    "name": "Hogwarts Legacy",
    "price": 25,
    "path": "./photos/game-9.jpg",
    "vendor_code": 256709,
    "color": "blue"
  },
  {
    "name": "Destiny",
    "price": 37,
    "path": "./photos/game-10.jpg",
    "vendor_code": 195421,
    "color": "green"
  }
]
